Ashlyn R EDA – Trees of Macalester
…
Code
#This I want to look cooler...

trees |>
  count(SPECIES) |>
  arrange(desc(n)) 

# A tibble: 67 × 2
   SPECIES            n
   <chr>          <int>
 1 White spruce     100
 2 Crabapple         78
 3 Silver maple      66
 4 Hackberry         65
 5 Sugar maple       64
 6 Honey locust      55
 7 Norway maple      54
 8 American elm      31
 9 Red maple         31
10 Eastern redbud    27
# ℹ 57 more rows
…
Code
#Maybe only show a select grouping?

trees |>
  group_by(SPECIES_BIN) |>
  summarize(mean(`Diameter at Breast Heigh (DBH)`), min(`Diameter at Breast Heigh (DBH)`), max(`Diameter at Breast Heigh (DBH)`))

# A tibble: 68 × 4
   SPECIES_BIN      mean(\Diameter at Breast Heigh (DBH…¹ min(\Diameter at Bre…²
   <chr>                                            <dbl>                  <dbl>
 1 Abies balsamea                                    3.22                   1.8 
 2 Abies concolor                                   11.2                   11.2 
 3 Acer nigrum                                      16.9                   14.0 
 4 Acer palmatum                                     4.00                   0.9 
 5 Acer platanoides                                 10.9                    1.83
 6 Acer rubrum                                       8.54                   1.54
 7 Acer saccharinum                                 11.7                    2.44
 8 Acer saccharum                                   11.3                    1.78
 9 Aesculus glabra                                   3.88                   1.7 
10 Alnus glutinosa                                   0.73                   0.73
# ℹ 58 more rows
# ℹ abbreviated names: ¹​`mean(\`Diameter at Breast Heigh (DBH)\`)`,
#   ²​`min(\`Diameter at Breast Heigh (DBH)\`)`
# ℹ 1 more variable: `max(\`Diameter at Breast Heigh (DBH)\`)` <dbl>
…
