Shaylee’s EDA – Trees of Macalester
…
Code
trees |> 
  count(SPECIES)|>
  arrange(desc(n))

# A tibble: 67 × 2
   SPECIES            n
   <chr>          <int>
 1 White spruce     100
 2 Crabapple         78
 3 Silver maple      66
 4 Hackberry         65
 5 Sugar maple       64
 6 Honey locust      55
 7 Norway maple      54
 8 American elm      31
 9 Red maple         31
10 Eastern redbud    27
# ℹ 57 more rows

Code
trees |> 
  count(SPECIES)|>
  arrange(desc(n))

# A tibble: 67 × 2
   SPECIES            n
   <chr>          <int>
 1 White spruce     100
 2 Crabapple         78
 3 Silver maple      66
 4 Hackberry         65
 5 Sugar maple       64
 6 Honey locust      55
 7 Norway maple      54
 8 American elm      31
 9 Red maple         31
10 Eastern redbud    27
# ℹ 57 more rows
…
Code
library(ggiraph)

Code
library(dplyr)
trees_clean <- trees %>% filter(!is.na(Memorial))

Code
trees_clean |>
  select(SPECIES, Memorial)

# A tibble: 38 × 2
   SPECIES           Memorial                                             
   <chr>             <chr>                                                
 1 Japanese maple    Jimm Crowder                                         
 2 American sycamore Reid McLean ‘72                                      
 3 Sugar maple       Paul Pellowski                                       
 4 White oak         Entrepreneurship and Career Task Forces 2018-2022    
 5 Crabapple         James Wallace Heritage Society                       
 6 White oak         Marissa Shu-Hui Leow                                 
 7 Norway maple      Dr. O.T. Walter                                      
 8 Red pine          Jimm Crowder                                         
 9 Blue spruce       David S. Taylor: Allan ‘59 and Emily ‘60 Clark Taylor
10 Sugar maple       Roger L. Sempel, Class of 1967                       
# ℹ 28 more rows

38 tree memorials!

Code
trees_clean |>
  group_by(SPECIES) |>
  summarise(Memorials = paste(Memorial, collapse = ", "), .groups = "drop")

# A tibble: 27 × 2
   SPECIES           Memorials                                                  
   <chr>             <chr>                                                      
 1 American basswood Sarah Katherine Smith                                      
 2 American elm      Martha McIlhany Kendall, Grace M. Hill, Shannon Katherine …
 3 American hornbeam Marshall Simone ‘16                                        
 4 American sycamore Reid McLean ‘72                                            
 5 Black maple       Armin Herbert Steinhauser                                  
 6 Blue spruce       David S. Taylor: Allan ‘59 and Emily ‘60 Clark Taylor      
 7 Bur oak           Calvin J. Roetzel                                          
 8 Crabapple         James Wallace Heritage Society                             
 9 Eastern redbud    Henry R. West, member of Macalester’s Philosophy Departmen…
10 Fringetree        Gary Zahrbock                                              
# ℹ 17 more rows
…
